// Jest Snapshot v1, https://goo.gl/fbAQLP

exports[`DropDown components Snapshot testing 1`] = `
<div
  className="wms-ui-Dropdown dropdown"
>
  <div
    className="dropdown"
  >
    <button
      className="MuiButtonBase-root MuiButton-root MuiButton-outlined wms-ui-button wms-ui-dropdown-button"
      disabled={false}
      onBlur={[Function]}
      onClick={[Function]}
      onDragLeave={[Function]}
      onFocus={[Function]}
      onKeyDown={[Function]}
      onKeyUp={[Function]}
      onMouseDown={[Function]}
      onMouseLeave={[Function]}
      onMouseUp={[Function]}
      onTouchEnd={[Function]}
      onTouchMove={[Function]}
      onTouchStart={[Function]}
      tabIndex={0}
      type="button"
    >
      <span
        className="MuiButton-label"
      >
        Dropdown
      </span>
    </button>
  </div>
</div>
`;
