// Jest Snapshot v1, https://goo.gl/fbAQLP

exports[`Process bar components Snapshot testing 1`] = `
<div
  className="valuebar-cointainer undefined"
>
  <div
    className="meter valuebar undefined"
  >
    <span
      className="barcointainer"
      style={
        Object {
          "width": "25%",
        }
      }
    >
      <span
        className="progress barcointainer bg-info progress-bar-striped"
      />
    </span>
  </div>
  <span
    className="progress-value barcointainer"
  >
    25%
  </span>
</div>
`;
